<svg id="file-copy-fill" xmlns="http://www.w3.org/2000/svg" width="60" height="60" viewBox="0 0 60 60">
  <path id="Path_3799" data-name="Path 3799" d="M0,0H60V60H0Z" fill="none"/>
  <path id="Path_3800" data-name="Path 3800" d="M13,12V4.5A2.5,2.5,0,0,1,15.5,2h30A2.5,2.5,0,0,1,48,4.5v35A2.5,2.5,0,0,1,45.5,42H38v7.5A2.508,2.508,0,0,1,35.482,52H5.517A2.5,2.5,0,0,1,3,49.5l.007-35A2.508,2.508,0,0,1,5.525,12Zm5,0H38V37h5V7H18Z" transform="translate(4.5 3)" fill="#606b7e"/>
</svg>
