<svg xmlns="http://www.w3.org/2000/svg" width="53.5" height="40" viewBox="0 0 53.5 40">
  <g id="Group_668" data-name="Group 668" transform="translate(-6762 -1550)">
    <g id="eye_1_" data-name="eye (1)" transform="translate(6763 1548)">
      <path id="Path_3198" data-name="Path 3198" d="M1,22S10,4,25.75,4,50.5,22,50.5,22s-9,18-24.75,18S1,22,1,22Z" fill="none" stroke="#1d4386" stroke-linecap="round" stroke-linejoin="round" stroke-width="4"/>
      <circle id="Ellipse_47" data-name="Ellipse 47" cx="6.75" cy="6.75" r="6.75" transform="translate(19 15.25)" fill="none" stroke="#1d4386" stroke-linecap="round" stroke-linejoin="round" stroke-width="4"/>
    </g>
    <rect id="Rectangle_685" data-name="Rectangle 685" width="4" height="39.333" transform="translate(6774.922 1559.417) rotate(-45)" fill="#1d4386"/>
  </g>
</svg>
